final_proj
…
    Author

             Maritza Ruiz and Steven Todd McIntyre II 

    Abstract

    placeholder

Introduction

Methods

This analysis utilized R (R Core Team 2025) and the following R libraries: tidyverse (Wickham et al. 2019), rio (Chan et al. 2023), knitr (Xie 2014), here (Müller 2025), and janitor (Firke 2024).

# A tibble: 234 × 8
   sector     starting_enrollment_…¹ entering_cohort_year first_spring_persist…²
   <chr>      <chr>                                 <dbl>                  <dbl>
 1 All        All                                    2015                  0.859
 2 All        All                                    2016                  0.860
 3 All        All                                    2017                  0.866
 4 All        All                                    2018                  0.863
 5 All        All                                    2019                  0.861
 6 All        All                                    2020                  0.840
 7 All        All                                    2021                  0.853
 8 All        All                                    2022                  0.860
 9 All        All                                    2023                  0.864
10 Private f… All                                    2015                  0.764
# ℹ 224 more rows
# ℹ abbreviated names: ¹​starting_enrollment_intensity,
#   ²​first_spring_persistence
# ℹ 4 more variables: second_fall_persistence <dbl>,
#   first_spring_retention <dbl>, second_fall_retention <dbl>,
#   student_count <dbl>
…
